{
    "root_node3" : {
        "url": "http://localhost",
        "port": 3000
    },
    "root_node2" : {
        "url": "http://176.168.155.44",
        "port": 3000
    },
    "root_node" : {
        "url": "http://192.168.1.61",
        "port": 3000
    }

}